<?xml version="1.0" encoding="UTF-8"?>
<!DOCTYPE suite SYSTEM "http://testng.org/testng-1.0.dtd">
<suite verbose="0" name="Failed suite [Suite]">
  <test name="Test(failed)">
    <classes>
      <class name="com.freecharge.virtualcards.tests.Create_Virtual_Card_Happy_Flow">
        <methods>
          <include name="beforeMethod"/>
          <include name="Create_Virtual_card_Happy_flow_launcher_SuccesssUsecase"/>
          <include name="afterMethod"/>
        </methods>
      </class> <!-- com.freecharge.virtualcards.tests.Create_Virtual_Card_Happy_Flow -->
    </classes>
  </test> <!-- Test(failed) -->
</suite> <!-- Failed suite [Suite] -->
